{
    "eventid": "cowrie.session.connect",
    "timestamp": "2022-11-06T00:05:40.756625Z",
    "session": "25b95287",
    "message": "New connection: 137.184.190.188:41974 (172.19.0.2:2222) [session: 25b95287]",
    "src_port": 41974,
    "system": "cowrie.ssh.factory.CowrieSSHFactory",
    "isError": 0,
    "src_ip": "137.184.190.188",
    "dst_port": 2222,
    "dst_ip": "172.19.0.2",
    "sensor": "2a4d82dacca3"
}
{
    "eventid": "cowrie.session.connect",
    "timestamp": "2022-11-06T00:05:42.741357Z",
    "session": "ce59f78a",
    "message": "New connection: 137.184.190.188:41976 (172.19.0.2:2222) [session: ce59f78a]",
    "src_port": 41976,
    "system": "cowrie.ssh.factory.CowrieSSHFactory",
    "isError": 0,
    "src_ip": "137.184.190.188",
    "dst_port": 2222,
    "dst_ip": "172.19.0.2",
    "sensor": "2a4d82dacca3"
}
{
    "eventid": "cowrie.session.closed",
    "timestamp": "2022-11-06T00:05:43.327210Z",
    "message": "Connection lost after 2 seconds",
    "system": "HoneyPotSSHTransport,79,137.184.190.188",
    "isError": 0,
    "src_ip": "137.184.190.188",
    "duration": 2.5686888694763184,
    "session": "25b95287",
    "sensor": "2a4d82dacca3"
}
{
    "eventid": "cowrie.client.version",
    "macCS": [
        "hmac-sha2-256",
        "hmac-sha2-512",
        "hmac-sha2-256-etm@openssh.com",
        "hmac-sha2-512-etm@openssh.com",
        "hmac-sha1",
        "hmac-md5",
        "hmac-sha1-96",
        "hmac-md5-96"
    ],
    "timestamp": "2022-11-06T00:05:44.021896Z",
    "session": "ce59f78a",
    "kexAlgs": [
        "curve25519-sha256@libssh.org",
        "ecdh-sha2-nistp256",
        "ecdh-sha2-nistp384",
        "ecdh-sha2-nistp521",
        "diffie-hellman-group16-sha512",
        "diffie-hellman-group-exchange-sha256",
        "diffie-hellman-group14-sha256",
        "diffie-hellman-group-exchange-sha1",
        "diffie-hellman-group14-sha1",
        "diffie-hellman-group1-sha1",
        "ext-info-c"
    ],
    "keyAlgs": [
        "ssh-rsa",
        "ssh-dss",
        "ecdsa-sha2-nistp256",
        "ssh-ed25519",
        "ecdsa-sha2-nistp384",
        "ecdsa-sha2-nistp521",
        "rsa-sha2-512",
        "rsa-sha2-256",
        "ssh-rsa-cert-v01@openssh.com",
        "ssh-dss-cert-v01@openssh.com",
        "ecdsa-sha2-nistp256-cert-v01@openssh.com",
        "ssh-ed25519-cert-v01@openssh.com",
        "ecdsa-sha2-nistp384-cert-v01@openssh.com",
        "ecdsa-sha2-nistp521-cert-v01@openssh.com",
        "rsa-sha2-512-cert-v01@openssh.com",
        "rsa-sha2-256-cert-v01@openssh.com"
    ],
    "message": "Remote SSH version: SSH-2.0-paramiko_2.11.0",
    "system": "HoneyPotSSHTransport,80,137.184.190.188",
    "isError": 0,
    "src_ip": "137.184.190.188",
    "version": "SSH-2.0-paramiko_2.11.0",
    "compCS": [
        "none"
    ],
    "sensor": "2a4d82dacca3",
    "encCS": [
        "aes128-ctr",
        "aes192-ctr",
        "aes256-ctr",
        "aes128-cbc",
        "aes192-cbc",
        "aes256-cbc",
        "3des-cbc"
    ]
}
{
    "eventid": "cowrie.session.connect",
    "timestamp": "2022-11-06T00:05:45.498776Z",
    "session": "33a2224e",
    "message": "New connection: 137.184.190.188:41978 (172.19.0.2:2222) [session: 33a2224e]",
    "src_port": 41978,
    "system": "cowrie.ssh.factory.CowrieSSHFactory",
    "isError": 0,
    "src_ip": "137.184.190.188",
    "dst_port": 2222,
    "dst_ip": "172.19.0.2",
    "sensor": "2a4d82dacca3"
}
{
    "eventid": "cowrie.client.version",
    "macCS": [
        "hmac-sha2-256",
        "hmac-sha2-512",
        "hmac-sha2-256-etm@openssh.com",
        "hmac-sha2-512-etm@openssh.com",
        "hmac-sha1",
        "hmac-md5",
        "hmac-sha1-96",
        "hmac-md5-96"
    ],
    "timestamp": "2022-11-06T00:05:46.453787Z",
    "session": "33a2224e",
    "kexAlgs": [
        "curve25519-sha256@libssh.org",
        "ecdh-sha2-nistp256",
        "ecdh-sha2-nistp384",
        "ecdh-sha2-nistp521",
        "diffie-hellman-group16-sha512",
        "diffie-hellman-group-exchange-sha256",
        "diffie-hellman-group14-sha256",
        "diffie-hellman-group-exchange-sha1",
        "diffie-hellman-group14-sha1",
        "diffie-hellman-group1-sha1",
        "ext-info-c"
    ],
    "keyAlgs": [
        "ssh-ed25519",
        "ecdsa-sha2-nistp256",
        "ecdsa-sha2-nistp384",
        "ecdsa-sha2-nistp521",
        "rsa-sha2-512",
        "rsa-sha2-256",
        "ssh-rsa",
        "ssh-dss",
        "ssh-ed25519-cert-v01@openssh.com",
        "ecdsa-sha2-nistp256-cert-v01@openssh.com",
        "ecdsa-sha2-nistp384-cert-v01@openssh.com",
        "ecdsa-sha2-nistp521-cert-v01@openssh.com",
        "rsa-sha2-512-cert-v01@openssh.com",
        "rsa-sha2-256-cert-v01@openssh.com",
        "ssh-rsa-cert-v01@openssh.com",
        "ssh-dss-cert-v01@openssh.com"
    ],
    "message": "Remote SSH version: SSH-2.0-paramiko_2.11.0",
    "system": "HoneyPotSSHTransport,81,137.184.190.188",
    "isError": 0,
    "src_ip": "137.184.190.188",
    "version": "SSH-2.0-paramiko_2.11.0",
    "compCS": [
        "none"
    ],
    "sensor": "2a4d82dacca3",
    "encCS": [
        "aes128-ctr",
        "aes192-ctr",
        "aes256-ctr",
        "aes128-cbc",
        "aes192-cbc",
        "aes256-cbc",
        "3des-cbc"
    ]
}
{
    "eventid": "cowrie.session.closed",
    "timestamp": "2022-11-06T00:05:48.111263Z",
    "message": "Connection lost after 2 seconds",
    "system": "HoneyPotSSHTransport,81,137.184.190.188",
    "isError": 0,
    "src_ip": "137.184.190.188",
    "duration": 2.6111700534820557,
    "session": "33a2224e",
    "sensor": "2a4d82dacca3"
}
{
    "eventid": "cowrie.session.closed",
    "timestamp": "2022-11-06T00:06:17.122959Z",
    "message": "Connection lost after 34 seconds",
    "system": "HoneyPotSSHTransport,80,137.184.190.188",
    "isError": 0,
    "src_ip": "137.184.190.188",
    "duration": 34.38023591041565,
    "session": "ce59f78a",
    "sensor": "2a4d82dacca3"
}
{
    "eventid": "cowrie.session.connect",
    "timestamp": "2022-11-06T04:54:48.573824Z",
    "session": "57d6e0cd",
    "message": "New connection: 137.184.190.188:47000 (172.19.0.2:2222) [session: 57d6e0cd]",
    "src_port": 47000,
    "system": "cowrie.ssh.factory.CowrieSSHFactory",
    "isError": 0,
    "src_ip": "137.184.190.188",
    "dst_port": 2222,
    "dst_ip": "172.19.0.2",
    "sensor": "2a4d82dacca3"
}
{
    "eventid": "cowrie.client.version",
    "macCS": [
        "hmac-sha2-256",
        "hmac-sha2-512",
        "hmac-sha2-256-etm@openssh.com",
        "hmac-sha2-512-etm@openssh.com",
        "hmac-sha1",
        "hmac-md5",
        "hmac-sha1-96",
        "hmac-md5-96"
    ],
    "timestamp": "2022-11-06T04:54:48.896307Z",
    "session": "57d6e0cd",
    "kexAlgs": [
        "curve25519-sha256@libssh.org",
        "ecdh-sha2-nistp256",
        "ecdh-sha2-nistp384",
        "ecdh-sha2-nistp521",
        "diffie-hellman-group16-sha512",
        "diffie-hellman-group-exchange-sha256",
        "diffie-hellman-group14-sha256",
        "diffie-hellman-group-exchange-sha1",
        "diffie-hellman-group14-sha1",
        "diffie-hellman-group1-sha1",
        "ext-info-c"
    ],
    "keyAlgs": [
        "ssh-rsa",
        "ssh-dss",
        "ecdsa-sha2-nistp256",
        "ssh-ed25519",
        "ecdsa-sha2-nistp384",
        "ecdsa-sha2-nistp521",
        "rsa-sha2-512",
        "rsa-sha2-256",
        "ssh-rsa-cert-v01@openssh.com",
        "ssh-dss-cert-v01@openssh.com",
        "ecdsa-sha2-nistp256-cert-v01@openssh.com",
        "ssh-ed25519-cert-v01@openssh.com",
        "ecdsa-sha2-nistp384-cert-v01@openssh.com",
        "ecdsa-sha2-nistp521-cert-v01@openssh.com",
        "rsa-sha2-512-cert-v01@openssh.com",
        "rsa-sha2-256-cert-v01@openssh.com"
    ],
    "message": "Remote SSH version: SSH-2.0-paramiko_2.11.0",
    "system": "HoneyPotSSHTransport,82,137.184.190.188",
    "isError": 0,
    "src_ip": "137.184.190.188",
    "version": "SSH-2.0-paramiko_2.11.0",
    "compCS": [
        "none"
    ],
    "sensor": "2a4d82dacca3",
    "encCS": [
        "aes128-ctr",
        "aes192-ctr",
        "aes256-ctr",
        "aes128-cbc",
        "aes192-cbc",
        "aes256-cbc",
        "3des-cbc"
    ]
}
{
    "eventid": "cowrie.session.closed",
    "timestamp": "2022-11-06T04:54:49.459792Z",
    "message": "Connection lost after 0 seconds",
    "system": "HoneyPotSSHTransport,82,137.184.190.188",
    "isError": 0,
    "src_ip": "137.184.190.188",
    "duration": 0.8844141960144043,
    "session": "57d6e0cd",
    "sensor": "2a4d82dacca3"
}
{
    "eventid": "cowrie.session.connect",
    "timestamp": "2022-11-06T04:54:49.730403Z",
    "session": "5a27cf44",
    "message": "New connection: 137.184.190.188:47002 (172.19.0.2:2222) [session: 5a27cf44]",
    "src_port": 47002,
    "system": "cowrie.ssh.factory.CowrieSSHFactory",
    "isError": 0,
    "src_ip": "137.184.190.188",
    "dst_port": 2222,
    "dst_ip": "172.19.0.2",
    "sensor": "2a4d82dacca3"
}
{
    "eventid": "cowrie.client.version",
    "macCS": [
        "hmac-sha2-256",
        "hmac-sha2-512",
        "hmac-sha2-256-etm@openssh.com",
        "hmac-sha2-512-etm@openssh.com",
        "hmac-sha1",
        "hmac-md5",
        "hmac-sha1-96",
        "hmac-md5-96"
    ],
    "timestamp": "2022-11-06T04:54:50.172763Z",
    "session": "5a27cf44",
    "kexAlgs": [
        "curve25519-sha256@libssh.org",
        "ecdh-sha2-nistp256",
        "ecdh-sha2-nistp384",
        "ecdh-sha2-nistp521",
        "diffie-hellman-group16-sha512",
        "diffie-hellman-group-exchange-sha256",
        "diffie-hellman-group14-sha256",
        "diffie-hellman-group-exchange-sha1",
        "diffie-hellman-group14-sha1",
        "diffie-hellman-group1-sha1",
        "ext-info-c"
    ],
    "keyAlgs": [
        "ssh-ed25519",
        "ecdsa-sha2-nistp256",
        "ecdsa-sha2-nistp384",
        "ecdsa-sha2-nistp521",
        "rsa-sha2-512",
        "rsa-sha2-256",
        "ssh-rsa",
        "ssh-dss",
        "ssh-ed25519-cert-v01@openssh.com",
        "ecdsa-sha2-nistp256-cert-v01@openssh.com",
        "ecdsa-sha2-nistp384-cert-v01@openssh.com",
        "ecdsa-sha2-nistp521-cert-v01@openssh.com",
        "rsa-sha2-512-cert-v01@openssh.com",
        "rsa-sha2-256-cert-v01@openssh.com",
        "ssh-rsa-cert-v01@openssh.com",
        "ssh-dss-cert-v01@openssh.com"
    ],
    "message": "Remote SSH version: SSH-2.0-paramiko_2.11.0",
    "system": "HoneyPotSSHTransport,83,137.184.190.188",
    "isError": 0,
    "src_ip": "137.184.190.188",
    "version": "SSH-2.0-paramiko_2.11.0",
    "compCS": [
        "none"
    ],
    "sensor": "2a4d82dacca3",
    "encCS": [
        "aes128-ctr",
        "aes192-ctr",
        "aes256-ctr",
        "aes128-cbc",
        "aes192-cbc",
        "aes256-cbc",
        "3des-cbc"
    ]
}
{
    "eventid": "cowrie.session.closed",
    "timestamp": "2022-11-06T04:54:50.246614Z",
    "message": "Connection lost after 0 seconds",
    "system": "HoneyPotSSHTransport,83,137.184.190.188",
    "isError": 0,
    "src_ip": "137.184.190.188",
    "duration": 0.5149500370025635,
    "session": "5a27cf44",
    "sensor": "2a4d82dacca3"
}
{
    "eventid": "cowrie.session.connect",
    "timestamp": "2022-11-06T08:04:04.218169Z",
    "session": "17c0989a",
    "message": "New connection: 64.62.197.14:4869 (172.19.0.2:2222) [session: 17c0989a]",
    "src_port": 4869,
    "system": "cowrie.ssh.factory.CowrieSSHFactory",
    "isError": 0,
    "src_ip": "64.62.197.14",
    "dst_port": 2222,
    "dst_ip": "172.19.0.2",
    "sensor": "2a4d82dacca3"
}
{
    "eventid": "cowrie.client.version",
    "macCS": [
        "hmac-sha2-256",
        "hmac-sha1",
        "hmac-sha1-96"
    ],
    "timestamp": "2022-11-06T08:04:04.397006Z",
    "session": "17c0989a",
    "kexAlgs": [
        "curve25519-sha256@libssh.org",
        "ecdh-sha2-nistp256",
        "ecdh-sha2-nistp384",
        "ecdh-sha2-nistp521",
        "diffie-hellman-group14-sha1",
        "diffie-hellman-group1-sha1",
        "curve25519-sha256@libssh.org",
        "ecdh-sha2-nistp256",
        "ecdh-sha2-nistp384",
        "ecdh-sha2-nistp521",
        "diffie-hellman-group14-sha1",
        "diffie-hellman-group1-sha1",
        "diffie-hellman-group-exchange-sha256",
        "diffie-hellman-group-exchange-sha1"
    ],
    "keyAlgs": [
        "ssh-rsa-cert-v01@openssh.com",
        "ssh-dss-cert-v01@openssh.com",
        "ecdsa-sha2-nistp256-cert-v01@openssh.com",
        "ecdsa-sha2-nistp384-cert-v01@openssh.com",
        "ecdsa-sha2-nistp521-cert-v01@openssh.com",
        "ssh-ed25519-cert-v01@openssh.com",
        "ecdsa-sha2-nistp256",
        "ecdsa-sha2-nistp384",
        "ecdsa-sha2-nistp521",
        "ssh-rsa",
        "ssh-dss",
        "ssh-ed25519",
        "ssh-rsa-cert-v01@openssh.com",
        "ssh-dss-cert-v01@openssh.com",
        "ecdsa-sha2-nistp256-cert-v01@openssh.com",
        "ecdsa-sha2-nistp384-cert-v01@openssh.com",
        "ecdsa-sha2-nistp521-cert-v01@openssh.com",
        "ssh-ed25519-cert-v01@openssh.com",
        "ecdsa-sha2-nistp256",
        "ecdsa-sha2-nistp384",
        "ecdsa-sha2-nistp521",
        "ssh-rsa",
        "ssh-dss",
        "ssh-ed25519"
    ],
    "message": "Remote SSH version: SSH-2.0-Go",
    "system": "HoneyPotSSHTransport,84,64.62.197.14",
    "isError": 0,
    "src_ip": "64.62.197.14",
    "version": "SSH-2.0-Go",
    "compCS": [
        "none"
    ],
    "sensor": "2a4d82dacca3",
    "encCS": [
        "aes128-ctr",
        "aes192-ctr",
        "aes256-ctr",
        "aes128-gcm@openssh.com",
        "arcfour256",
        "arcfour128",
        "aes128-ctr",
        "aes192-ctr",
        "aes256-ctr",
        "aes128-gcm@openssh.com",
        "arcfour256",
        "arcfour128",
        "aes128-cbc",
        "3des-cbc",
        "arcfour"
    ]
}
{
    "eventid": "cowrie.session.closed",
    "timestamp": "2022-11-06T08:04:08.221187Z",
    "message": "Connection lost after 4 seconds",
    "system": "HoneyPotSSHTransport,84,64.62.197.14",
    "isError": 0,
    "src_ip": "64.62.197.14",
    "duration": 4.001537084579468,
    "session": "17c0989a",
    "sensor": "2a4d82dacca3"
}
{
    "eventid": "cowrie.session.connect",
    "timestamp": "2022-11-06T09:42:04.306469Z",
    "session": "8df945e5",
    "message": "New connection: 192.155.90.118:10548 (172.19.0.2:2222) [session: 8df945e5]",
    "src_port": 10548,
    "system": "cowrie.ssh.factory.CowrieSSHFactory",
    "isError": 0,
    "src_ip": "192.155.90.118",
    "dst_port": 2222,
    "dst_ip": "172.19.0.2",
    "sensor": "2a4d82dacca3"
}
{
    "eventid": "cowrie.session.closed",
    "timestamp": "2022-11-06T09:42:04.309045Z",
    "message": "Connection lost after 0 seconds",
    "system": "HoneyPotSSHTransport,85,192.155.90.118",
    "isError": 0,
    "src_ip": "192.155.90.118",
    "duration": 0.0011239051818847656,
    "session": "8df945e5",
    "sensor": "2a4d82dacca3"
}
{
    "eventid": "cowrie.session.connect",
    "timestamp": "2022-11-06T11:46:04.594280Z",
    "session": "8b00f4c3",
    "message": "New connection: 94.232.47.167:2411 (172.19.0.2:2222) [session: 8b00f4c3]",
    "src_port": 2411,
    "system": "cowrie.ssh.factory.CowrieSSHFactory",
    "isError": 0,
    "src_ip": "94.232.47.167",
    "dst_port": 2222,
    "dst_ip": "172.19.0.2",
    "sensor": "2a4d82dacca3"
}
{
    "eventid": "cowrie.session.closed",
    "timestamp": "2022-11-06T11:46:04.596715Z",
    "message": "Connection lost after 0 seconds",
    "system": "HoneyPotSSHTransport,86,94.232.47.167",
    "isError": 0,
    "src_ip": "94.232.47.167",
    "duration": 0.0006520748138427734,
    "session": "8b00f4c3",
    "sensor": "2a4d82dacca3"
}
{
    "eventid": "cowrie.session.connect",
    "timestamp": "2022-11-06T11:46:05.119196Z",
    "session": "8ecddd45",
    "message": "New connection: 94.232.47.167:11095 (172.19.0.2:2222) [session: 8ecddd45]",
    "src_port": 11095,
    "system": "cowrie.ssh.factory.CowrieSSHFactory",
    "isError": 0,
    "src_ip": "94.232.47.167",
    "dst_port": 2222,
    "dst_ip": "172.19.0.2",
    "sensor": "2a4d82dacca3"
}
{
    "eventid": "cowrie.session.closed",
    "timestamp": "2022-11-06T11:46:05.121473Z",
    "message": "Connection lost after 0 seconds",
    "system": "HoneyPotSSHTransport,87,94.232.47.167",
    "isError": 0,
    "src_ip": "94.232.47.167",
    "duration": 0.0009849071502685547,
    "session": "8ecddd45",
    "sensor": "2a4d82dacca3"
}
{
    "eventid": "cowrie.session.connect",
    "timestamp": "2022-11-06T11:46:06.526152Z",
    "session": "cba8a0ea",
    "message": "New connection: 94.232.47.167:26348 (172.19.0.2:2222) [session: cba8a0ea]",
    "src_port": 26348,
    "system": "cowrie.ssh.factory.CowrieSSHFactory",
    "isError": 0,
    "src_ip": "94.232.47.167",
    "dst_port": 2222,
    "dst_ip": "172.19.0.2",
    "sensor": "2a4d82dacca3"
}
{
    "eventid": "cowrie.session.closed",
    "timestamp": "2022-11-06T11:46:06.528464Z",
    "message": "Connection lost after 0 seconds",
    "system": "HoneyPotSSHTransport,88,94.232.47.167",
    "isError": 0,
    "src_ip": "94.232.47.167",
    "duration": 0.000988006591796875,
    "session": "cba8a0ea",
    "sensor": "2a4d82dacca3"
}
{
    "eventid": "cowrie.session.connect",
    "timestamp": "2022-11-06T13:18:49.024549Z",
    "session": "4e67b9da",
    "message": "New connection: 134.209.17.220:61953 (172.19.0.2:2222) [session: 4e67b9da]",
    "src_port": 61953,
    "system": "cowrie.ssh.factory.CowrieSSHFactory",
    "isError": 0,
    "src_ip": "134.209.17.220",
    "dst_port": 2222,
    "dst_ip": "172.19.0.2",
    "sensor": "2a4d82dacca3"
}
{
    "eventid": "cowrie.session.closed",
    "timestamp": "2022-11-06T13:18:49.273546Z",
    "message": "Connection lost after 0 seconds",
    "system": "HoneyPotSSHTransport,89,134.209.17.220",
    "isError": 0,
    "src_ip": "134.209.17.220",
    "duration": 0.24745893478393555,
    "session": "4e67b9da",
    "sensor": "2a4d82dacca3"
}
{
    "eventid": "cowrie.session.connect",
    "timestamp": "2022-11-06T18:24:47.567874Z",
    "session": "afa75fd9",
    "message": "New connection: 37.58.56.29:45425 (172.19.0.2:2222) [session: afa75fd9]",
    "src_port": 45425,
    "system": "cowrie.ssh.factory.CowrieSSHFactory",
    "isError": 0,
    "src_ip": "37.58.56.29",
    "dst_port": 2222,
    "dst_ip": "172.19.0.2",
    "sensor": "2a4d82dacca3"
}
{
    "eventid": "cowrie.session.closed",
    "timestamp": "2022-11-06T18:24:47.814750Z",
    "message": "Connection lost after 0 seconds",
    "system": "HoneyPotSSHTransport,90,37.58.56.29",
    "isError": 0,
    "src_ip": "37.58.56.29",
    "duration": 0.24539399147033691,
    "session": "afa75fd9",
    "sensor": "2a4d82dacca3"
}
{
    "eventid": "cowrie.session.connect",
    "timestamp": "2022-11-06T22:59:25.921187Z",
    "session": "df08672b",
    "message": "New connection: 192.241.206.20:38638 (172.19.0.2:2222) [session: df08672b]",
    "src_port": 38638,
    "system": "cowrie.ssh.factory.CowrieSSHFactory",
    "isError": 0,
    "src_ip": "192.241.206.20",
    "dst_port": 2222,
    "dst_ip": "172.19.0.2",
    "sensor": "2a4d82dacca3"
}
{
    "eventid": "cowrie.session.closed",
    "timestamp": "2022-11-06T22:59:25.923649Z",
    "message": "Connection lost after 0 seconds",
    "system": "HoneyPotSSHTransport,91,192.241.206.20",
    "isError": 0,
    "src_ip": "192.241.206.20",
    "duration": 0.0009539127349853516,
    "session": "df08672b",
    "sensor": "2a4d82dacca3"
}
{
    "eventid": "cowrie.session.connect",
    "timestamp": "2022-11-06T23:18:20.256226Z",
    "session": "7b0d98df",
    "message": "New connection: 143.198.225.197:36608 (172.19.0.2:2222) [session: 7b0d98df]",
    "src_port": 36608,
    "system": "cowrie.ssh.factory.CowrieSSHFactory",
    "isError": 0,
    "src_ip": "143.198.225.197",
    "dst_port": 2222,
    "dst_ip": "172.19.0.2",
    "sensor": "2a4d82dacca3"
}
{
    "eventid": "cowrie.client.version",
    "macCS": [
        "hmac-sha2-256",
        "hmac-sha2-512",
        "hmac-sha2-256-etm@openssh.com",
        "hmac-sha2-512-etm@openssh.com",
        "hmac-sha1",
        "hmac-md5",
        "hmac-sha1-96",
        "hmac-md5-96"
    ],
    "timestamp": "2022-11-06T23:18:20.436475Z",
    "session": "7b0d98df",
    "kexAlgs": [
        "curve25519-sha256@libssh.org",
        "ecdh-sha2-nistp256",
        "ecdh-sha2-nistp384",
        "ecdh-sha2-nistp521",
        "diffie-hellman-group16-sha512",
        "diffie-hellman-group-exchange-sha256",
        "diffie-hellman-group14-sha256",
        "diffie-hellman-group-exchange-sha1",
        "diffie-hellman-group14-sha1",
        "diffie-hellman-group1-sha1",
        "ext-info-c"
    ],
    "keyAlgs": [
        "ssh-rsa",
        "ssh-dss",
        "ecdsa-sha2-nistp256",
        "ssh-ed25519",
        "ecdsa-sha2-nistp384",
        "ecdsa-sha2-nistp521",
        "rsa-sha2-512",
        "rsa-sha2-256",
        "ssh-rsa-cert-v01@openssh.com",
        "ssh-dss-cert-v01@openssh.com",
        "ecdsa-sha2-nistp256-cert-v01@openssh.com",
        "ssh-ed25519-cert-v01@openssh.com",
        "ecdsa-sha2-nistp384-cert-v01@openssh.com",
        "ecdsa-sha2-nistp521-cert-v01@openssh.com",
        "rsa-sha2-512-cert-v01@openssh.com",
        "rsa-sha2-256-cert-v01@openssh.com"
    ],
    "message": "Remote SSH version: SSH-2.0-paramiko_2.11.0",
    "system": "HoneyPotSSHTransport,92,143.198.225.197",
    "isError": 0,
    "src_ip": "143.198.225.197",
    "version": "SSH-2.0-paramiko_2.11.0",
    "compCS": [
        "none"
    ],
    "sensor": "2a4d82dacca3",
    "encCS": [
        "aes128-ctr",
        "aes192-ctr",
        "aes256-ctr",
        "aes128-cbc",
        "aes192-cbc",
        "aes256-cbc",
        "3des-cbc"
    ]
}
{
    "eventid": "cowrie.session.closed",
    "timestamp": "2022-11-06T23:18:20.881006Z",
    "message": "Connection lost after 0 seconds",
    "system": "HoneyPotSSHTransport,92,143.198.225.197",
    "isError": 0,
    "src_ip": "143.198.225.197",
    "duration": 0.6231200695037842,
    "session": "7b0d98df",
    "sensor": "2a4d82dacca3"
}
{
    "eventid": "cowrie.session.connect",
    "timestamp": "2022-11-06T23:18:21.059624Z",
    "session": "a131e343",
    "message": "New connection: 143.198.225.197:36704 (172.19.0.2:2222) [session: a131e343]",
    "src_port": 36704,
    "system": "cowrie.ssh.factory.CowrieSSHFactory",
    "isError": 0,
    "src_ip": "143.198.225.197",
    "dst_port": 2222,
    "dst_ip": "172.19.0.2",
    "sensor": "2a4d82dacca3"
}
{
    "eventid": "cowrie.client.version",
    "macCS": [
        "hmac-sha2-256",
        "hmac-sha2-512",
        "hmac-sha2-256-etm@openssh.com",
        "hmac-sha2-512-etm@openssh.com",
        "hmac-sha1",
        "hmac-md5",
        "hmac-sha1-96",
        "hmac-md5-96"
    ],
    "timestamp": "2022-11-06T23:18:21.239428Z",
    "session": "a131e343",
    "kexAlgs": [
        "curve25519-sha256@libssh.org",
        "ecdh-sha2-nistp256",
        "ecdh-sha2-nistp384",
        "ecdh-sha2-nistp521",
        "diffie-hellman-group16-sha512",
        "diffie-hellman-group-exchange-sha256",
        "diffie-hellman-group14-sha256",
        "diffie-hellman-group-exchange-sha1",
        "diffie-hellman-group14-sha1",
        "diffie-hellman-group1-sha1",
        "ext-info-c"
    ],
    "keyAlgs": [
        "ssh-ed25519",
        "ecdsa-sha2-nistp256",
        "ecdsa-sha2-nistp384",
        "ecdsa-sha2-nistp521",
        "rsa-sha2-512",
        "rsa-sha2-256",
        "ssh-rsa",
        "ssh-dss",
        "ssh-ed25519-cert-v01@openssh.com",
        "ecdsa-sha2-nistp256-cert-v01@openssh.com",
        "ecdsa-sha2-nistp384-cert-v01@openssh.com",
        "ecdsa-sha2-nistp521-cert-v01@openssh.com",
        "rsa-sha2-512-cert-v01@openssh.com",
        "rsa-sha2-256-cert-v01@openssh.com",
        "ssh-rsa-cert-v01@openssh.com",
        "ssh-dss-cert-v01@openssh.com"
    ],
    "message": "Remote SSH version: SSH-2.0-paramiko_2.11.0",
    "system": "HoneyPotSSHTransport,93,143.198.225.197",
    "isError": 0,
    "src_ip": "143.198.225.197",
    "version": "SSH-2.0-paramiko_2.11.0",
    "compCS": [
        "none"
    ],
    "sensor": "2a4d82dacca3",
    "encCS": [
        "aes128-ctr",
        "aes192-ctr",
        "aes256-ctr",
        "aes128-cbc",
        "aes192-cbc",
        "aes256-cbc",
        "3des-cbc"
    ]
}
{
    "eventid": "cowrie.session.closed",
    "timestamp": "2022-11-06T23:18:21.243145Z",
    "message": "Connection lost after 0 seconds",
    "system": "HoneyPotSSHTransport,93,143.198.225.197",
    "isError": 0,
    "src_ip": "143.198.225.197",
    "duration": 0.1822211742401123,
    "session": "a131e343",
    "sensor": "2a4d82dacca3"
}